<?xml version="1.0" encoding="UTF-8"?>

<!--
SPDX-FileCopyrightText: GNOME Design Team

SPDX-License-Identifier: CC0-1.0
-->

<svg width="16" height="16" version="1.1" viewBox="0 0 16 16" xmlns="http://www.w3.org/2000/svg">
 <path d="m 1 2 h 14 v 2 h -14 z m 0 0"/>
 <path d="m 1 7 h 14 v 2 h -14 z m 0 0"/>
 <path d="m 1 12 h 14 v 2 h -14 z m 0 0"/>
</svg>
