<?xml version="1.0" encoding="UTF-8"?>

<!--
SPDX-FileCopyrightText: GNOME Design Team

SPDX-License-Identifier: CC0-1.0
-->

<svg width="16" height="16" version="1.1" viewBox="0 0 16 16" xmlns="http://www.w3.org/2000/svg">
 <path d="m 13.996094 5 l -5.996094 6 l -6.003906 -6 z m 0 0"/>
</svg>
